{
    "openapi": "3.0.0",
    "info": {
        "title": "Users Statement API Documentation",
        "version": "0.1"
    },
    "paths": {
        "/api/token": {
            "post": {
                "tags": [
                    "Retrieve Authorization Token"
                ],
                "summary": "Post your email and password and we will return a token. Use the token in the 'Authorization' header like so 'Bearer YOUR_TOKEN'",
                "description": "",
                "operationId": "",
                "requestBody": {
                    "description": "The Token Request",
                    "required": true,
                    "content": {
                        "application/json": {
                            "schema": {
                                "properties": {
                                    "email": {
                                        "type": "string",
                                        "example": "admin@gmail.com"
                                    },
                                    "password": {
                                        "type": "string",
                                        "example": "123456"
                                    }
                                },
                                "type": "object"
                            }
                        }
                    }
                },
                "responses": {
                    "200": {
                        "description": "OK",
                        "content": {
                            "application/json": {
                                "schema": {
                                    "properties": {
                                        "status": {
                                            "type": "integer",
                                            "example": "1"
                                        },
                                        "data": {
                                            "type": "array",
                                            "example": [ {"token": "34|n5A7Q3iisueK93i1OVIdcsVsnKYZrxaH5nU0wJlR"}]
                                        }
                                    },
                                    "type": "object"
                                }
                            }
                        }
                    },
                    "422": {
                        "description": "The provided credentials are incorrect.",
                        "content": {
                            "application/json": {
                                "schema": {
                                    "properties": {
                                        "status": {
                                            "type": "integer",
                                            "example": "0"
                                        },
                                        "message": {
                                            "type": "string",
                                            "example": "validation_fail"
                                        },
                                        "errors": {
                                            "type": "array",
                                            "example": [{"email": [
                                                "The selected email is invalid."
                                            ]}]
                                        },
                                        "data": {
                                            "type": "array",
                                            "example": []
                                        }
                                    },
                                    "type": "object"
                                }
                            }
                        }
                    }
                }
            }
        },
        "/api/users": {
            "get": {
                "tags": [
                    "Users"
                ],
                "responses": {
                    "200": {
                        "description": "Success",
                        "content": {
                            "application/json": {
                                "schema": {
                                    "properties": {
                                        "status": {
                                            "type": "integer",
                                            "example": 1
                                        },
                                        "data": {
                                            "type": "array",
                                            "example": [
                                                {
                                                    "id": 4,
                                                    "name": "admin111",
                                                    "email": "admin@gmail.com",
                                                    "email_verified_at": null,
                                                    "created_at": "2023-04-28T09:55:25.000000Z",
                                                    "updated_at": "2023-05-05T10:29:05.000000Z"
                                                },
                                                {
                                                    "id": 6,
                                                    "name": "client",
                                                    "email": "client@gmail.com",
                                                    "email_verified_at": null,
                                                    "created_at": "2023-04-28T09:55:25.000000Z",
                                                    "updated_at": "2023-05-05T10:29:05.000000Z"
                                                },
                                                {
                                                    "id": 7,
                                                    "name": "hakobv",
                                                    "email": "client2@gmail.com",
                                                    "email_verified_at": null,
                                                    "created_at": "2023-05-05T10:57:34.000000Z",
                                                    "updated_at": "2023-05-05T10:57:34.000000Z"
                                                }
                                            ]
                                        },
                                        "message": {
                                            "type": "string",
                                            "example": "done"
                                        }
                                    },
                                    "type": "object"
                                }
                            }
                        }
                    },
                    "401": {
                        "description": "Unauthorized",
                        "content": {
                            "application/json": {
                                "schema": {
                                    "properties": {
                                        "status": {
                                            "type": "integer",
                                            "example": "0"
                                        },
                                        "message": {
                                            "type": "string",
                                            "example": "No Auth"
                                        },
                                        "errors": {
                                            "type": "array",
                                            "example": [
                                                "Bearer Token Miss or Wrong"
                                            ]
                                        },
                                        "data": {
                                            "type": "array",
                                            "example": []
                                        }
                                    },
                                    "type": "object"
                                }
                            }
                        }
                    },
                    "403": {
                        "description": "Forbidden",
                        "content": {
                            "application/json": {
                                "schema": {
                                    "properties": {
                                        "status": {
                                            "type": "integer",
                                            "example": "0"
                                        },
                                        "message": {
                                            "type": "string",
                                            "example": "User does not have the right roles"
                                        },
                                        "errors": {
                                            "type": "array",
                                            "example": [

                                            ]
                                        },
                                        "data": {
                                            "type": "array",
                                            "example": []
                                        }
                                    },
                                    "type": "object"
                                }
                            }
                        }
                    }
                },
                "security": [
                    {
                        "bearerAuth": []
                    }
                ]
            },
            "post": {
                "tags": [
                    "Users"
                ],
                "requestBody": {
                    "description": "create user request",
                    "required": true,
                    "content": {
                        "application/json": {
                            "schema": {
                                "properties": {
                                    "name": {
                                        "type": "string",
                                        "example": "Client user"
                                    },
                                    "email": {
                                        "type": "string",
                                        "example": "client@gmail.com"
                                    },
                                    "password": {
                                        "type": "string",
                                        "example": "123456"
                                    }
                                },
                                "type": "object"
                            }
                        }
                    }
                },
                "responses": {
                    "200": {
                        "description": "Success",
                        "content": {
                            "application/json": {
                                "schema": {
                                    "properties": {
                                        "status": {
                                            "type": "integer",
                                            "example": 1
                                        },
                                        "data": {
                                            "type": "array",
                                            "example": [
                                                {
                                                    "id": 4,
                                                    "name": "Client user",
                                                    "email": "client@gmail.com",
                                                    "email_verified_at": null,
                                                    "created_at": "2023-04-28T09:55:25.000000Z",
                                                    "updated_at": "2023-05-05T10:29:05.000000Z"
                                                }
                                            ]
                                        },
                                        "message": {
                                            "type": "string",
                                            "example": "done"
                                        }
                                    },
                                    "type": "object"
                                }
                            }
                        }
                    },
                    "400": {
                        "description": "The provided credentials are incorrect.",
                        "content": {
                            "application/json": {
                                "schema": {
                                    "properties": {
                                        "status": {
                                            "type": "integer",
                                            "example": "0"
                                        },
                                        "message": {
                                            "type": "string",
                                            "example": "validation_fail"
                                        },
                                        "errors": {
                                            "type": "array",
                                            "example": [{"email": [
                                                "The email has already been taken."
                                            ]}]
                                        },
                                        "data": {
                                            "type": "array",
                                            "example": []
                                        }
                                    },
                                    "type": "object"
                                }
                            }
                        }
                    },
                    "401": {
                        "description": "Unauthorized",
                        "content": {
                            "application/json": {
                                "schema": {
                                    "properties": {
                                        "status": {
                                            "type": "integer",
                                            "example": "0"
                                        },
                                        "message": {
                                            "type": "string",
                                            "example": "No Auth"
                                        },
                                        "errors": {
                                            "type": "array",
                                            "example": [
                                                "Bearer Token Miss or Wrong"
                                            ]
                                        },
                                        "data": {
                                            "type": "array",
                                            "example": []
                                        }
                                    },
                                    "type": "object"
                                }
                            }
                        }
                    },
                    "403": {
                        "description": "Forbidden",
                        "content": {
                            "application/json": {
                                "schema": {
                                    "properties": {
                                        "status": {
                                            "type": "integer",
                                            "example": "0"
                                        },
                                        "message": {
                                            "type": "string",
                                            "example": "User does not have the right roles"
                                        },
                                        "errors": {
                                            "type": "array",
                                            "example": [

                                            ]
                                        },
                                        "data": {
                                            "type": "array",
                                            "example": []
                                        }
                                    },
                                    "type": "object"
                                }
                            }
                        }
                    }
                },
                "security": [
                    {
                        "bearerAuth": []
                    }
                ]
            }
        },
        "/api/users/{user_id}": {
            "parameters": [
                {
                    "name": "user_id",
                    "in": "path",
                    "description": "",
                    "required": true,
                    "type": "integer"
                }
            ],
            "get": {
                "tags": [
                    "Users"
                ],
                "responses": {
                    "200": {
                        "description": "Success",
                        "content": {
                            "application/json": {
                                "schema": {
                                    "properties": {
                                        "status": {
                                            "type": "integer",
                                            "example": 1
                                        },
                                        "data": {
                                            "type": "array",
                                            "example": [
                                                {
                                                    "id": 4,
                                                    "name": "admin111",
                                                    "email": "admin@gmail.com",
                                                    "email_verified_at": null,
                                                    "created_at": "2023-04-28T09:55:25.000000Z",
                                                    "updated_at": "2023-05-05T10:29:05.000000Z"
                                                }
                                            ]
                                        },
                                        "message": {
                                            "type": "string",
                                            "example": "done"
                                        }
                                    },
                                    "type": "object"
                                }
                            }
                        }
                    },
                    "400": {
                        "description": "The provided credentials are incorrect.",
                        "content": {
                            "application/json": {
                                "schema": {
                                    "properties": {
                                        "status": {
                                            "type": "integer",
                                            "example": "0"
                                        },
                                        "message": {
                                            "type": "string",
                                            "example": "validation_fail"
                                        },
                                        "errors": {
                                            "type": "array",
                                            "example": [{"email": [
                                                "The selected id is invalid."
                                            ]}]
                                        },
                                        "data": {
                                            "type": "array",
                                            "example": []
                                        }
                                    },
                                    "type": "object"
                                }
                            }
                        }
                    },
                    "401": {
                        "description": "Unauthorized",
                        "content": {
                            "application/json": {
                                "schema": {
                                    "properties": {
                                        "status": {
                                            "type": "integer",
                                            "example": "0"
                                        },
                                        "message": {
                                            "type": "string",
                                            "example": "No Auth"
                                        },
                                        "errors": {
                                            "type": "array",
                                            "example": [
                                                "Bearer Token Miss or Wrong"
                                            ]
                                        },
                                        "data": {
                                            "type": "array",
                                            "example": []
                                        }
                                    },
                                    "type": "object"
                                }
                            }
                        }
                    },
                    "403": {
                        "description": "Forbidden",
                        "content": {
                            "application/json": {
                                "schema": {
                                    "properties": {
                                        "status": {
                                            "type": "integer",
                                            "example": "0"
                                        },
                                        "message": {
                                            "type": "string",
                                            "example": "User does not have the right roles"
                                        },
                                        "errors": {
                                            "type": "array",
                                            "example": [

                                            ]
                                        },
                                        "data": {
                                            "type": "array",
                                            "example": []
                                        }
                                    },
                                    "type": "object"
                                }
                            }
                        }
                    }
                },
                "security": [
                    {
                        "bearerAuth": []
                    }
                ]
            },
            "patch": {
                "tags": [
                    "Users"
                ],
                "requestBody": {
                    "description": "create user request",
                    "required": true,
                    "content": {
                        "application/json": {
                            "schema": {
                                "properties": {
                                    "name": {
                                        "type": "string",
                                        "example": "Client user"
                                    },
                                    "email": {
                                        "type": "string",
                                        "example": "client@gmail.com"
                                    }
                                },
                                "type": "object"
                            }
                        }
                    }
                },
                "responses": {
                    "200": {
                        "description": "Success",
                        "content": {
                            "application/json": {
                                "schema": {
                                    "properties": {
                                        "status": {
                                            "type": "integer",
                                            "example": 1
                                        },
                                        "data": {
                                            "type": "array",
                                            "example": [
                                                {
                                                    "id": 4,
                                                    "name": "Client user",
                                                    "email": "client@gmail.com",
                                                    "email_verified_at": null,
                                                    "created_at": "2023-04-28T09:55:25.000000Z",
                                                    "updated_at": "2023-05-05T10:29:05.000000Z"
                                                }
                                            ]
                                        },
                                        "message": {
                                            "type": "string",
                                            "example": "done"
                                        }
                                    },
                                    "type": "object"
                                }
                            }
                        }
                    },
                    "400": {
                        "description": "The provided credentials are incorrect.",
                        "content": {
                            "application/json": {
                                "schema": {
                                    "properties": {
                                        "status": {
                                            "type": "integer",
                                            "example": "0"
                                        },
                                        "message": {
                                            "type": "string",
                                            "example": "validation_fail"
                                        },
                                        "errors": {
                                            "type": "array",
                                            "example": [{"email": [
                                                "The selected id is invalid."
                                            ]}]
                                        },
                                        "data": {
                                            "type": "array",
                                            "example": []
                                        }
                                    },
                                    "type": "object"
                                }
                            }
                        }
                    },
                    "401": {
                        "description": "Unauthorized",
                        "content": {
                            "application/json": {
                                "schema": {
                                    "properties": {
                                        "status": {
                                            "type": "integer",
                                            "example": "0"
                                        },
                                        "message": {
                                            "type": "string",
                                            "example": "No Auth"
                                        },
                                        "errors": {
                                            "type": "array",
                                            "example": [
                                                "Bearer Token Miss or Wrong"
                                            ]
                                        },
                                        "data": {
                                            "type": "array",
                                            "example": []
                                        }
                                    },
                                    "type": "object"
                                }
                            }
                        }
                    },
                    "403": {
                        "description": "Forbidden",
                        "content": {
                            "application/json": {
                                "schema": {
                                    "properties": {
                                        "status": {
                                            "type": "integer",
                                            "example": "0"
                                        },
                                        "message": {
                                            "type": "string",
                                            "example": "User does not have the right roles"
                                        },
                                        "errors": {
                                            "type": "array",
                                            "example": [

                                            ]
                                        },
                                        "data": {
                                            "type": "array",
                                            "example": []
                                        }
                                    },
                                    "type": "object"
                                }
                            }
                        }
                    }
                },
                "security": [
                    {
                        "bearerAuth": []
                    }
                ]
            },
            "delete": {
                "tags": [
                    "Users"
                ],
                "responses": {
                    "200": {
                        "description": "Success",
                        "content": {
                            "application/json": {
                                "schema": {
                                    "properties": {
                                        "status": {
                                            "type": "integer",
                                            "example": 1
                                        },
                                        "data": {
                                            "type": "array",
                                            "example": []
                                        },
                                        "message": {
                                            "type": "string",
                                            "example": "done"
                                        }
                                    },
                                    "type": "object"
                                }
                            }
                        }
                    },
                    "400": {
                        "description": "The provided credentials are incorrect.",
                        "content": {
                            "application/json": {
                                "schema": {
                                    "properties": {
                                        "status": {
                                            "type": "integer",
                                            "example": "0"
                                        },
                                        "message": {
                                            "type": "string",
                                            "example": "validation_fail"
                                        },
                                        "errors": {
                                            "type": "array",
                                            "example": [{"email": [
                                                "The selected id is invalid."
                                            ]}]
                                        },
                                        "data": {
                                            "type": "array",
                                            "example": []
                                        }
                                    },
                                    "type": "object"
                                }
                            }
                        }
                    },
                    "401": {
                        "description": "Unauthorized",
                        "content": {
                            "application/json": {
                                "schema": {
                                    "properties": {
                                        "status": {
                                            "type": "integer",
                                            "example": "0"
                                        },
                                        "message": {
                                            "type": "string",
                                            "example": "No Auth"
                                        },
                                        "errors": {
                                            "type": "array",
                                            "example": [
                                                "Bearer Token Miss or Wrong"
                                            ]
                                        },
                                        "data": {
                                            "type": "array",
                                            "example": []
                                        }
                                    },
                                    "type": "object"
                                }
                            }
                        }
                    },
                    "403": {
                        "description": "Forbidden",
                        "content": {
                            "application/json": {
                                "schema": {
                                    "properties": {
                                        "status": {
                                            "type": "integer",
                                            "example": "0"
                                        },
                                        "message": {
                                            "type": "string",
                                            "example": "User does not have the right roles"
                                        },
                                        "errors": {
                                            "type": "array",
                                            "example": [

                                            ]
                                        },
                                        "data": {
                                            "type": "array",
                                            "example": []
                                        }
                                    },
                                    "type": "object"
                                }
                            }
                        }
                    }
                },
                "security": [
                    {
                        "bearerAuth": []
                    }
                ]

            }
        },
        "/api/statements": {
            "get": {
                "tags": [
                    "Statements"
                ],
                "responses": {
                    "200": {
                        "description": "Success",
                        "content": {
                            "application/json": {
                                "schema": {
                                    "properties": {
                                        "status": {
                                            "type": "integer",
                                            "example": 1
                                        },
                                        "data": {
                                            "type": "array",
                                            "example": [
                                                {
                                                    "id": 1,
                                                    "title": "test",
                                                    "description": "test test test",
                                                    "number": 222,
                                                    "file": "app/TeZTJWWB3JPLWceGL5RO5jh70hF6g5uEmkJY34FN.png",
                                                    "created_at": "2023-05-05T10:12:25.000000Z",
                                                    "updated_at": "2023-05-05T10:12:25.000000Z"
                                                },
                                                {
                                                    "id": 2,
                                                    "title": "test2",
                                                    "description": "test test test2",
                                                    "number": 2221,
                                                    "file": "app/x3o7V7czHtpLAk44PCpjDXo8QS6tn5Rr16dKQk5J.png",
                                                    "created_at": "2023-05-05T10:13:23.000000Z",
                                                    "updated_at": "2023-05-05T10:13:23.000000Z"
                                                },
                                                {
                                                    "id": 3,
                                                    "title": "test2",
                                                    "description": "test test test2",
                                                    "number": 2221,
                                                    "file": "app/goErqfpee3gmNfFbAECwR3iUGSGvKgwQePitfTfl.png",
                                                    "created_at": "2023-05-05T10:13:41.000000Z",
                                                    "updated_at": "2023-05-05T10:13:41.000000Z"
                                                },
                                                {
                                                    "id": 4,
                                                    "title": "test2",
                                                    "description": "test test test2",
                                                    "number": 2221,
                                                    "file": "app/xQiU9zOj1iIzdzSsFiXGeAVBEbWHO2KCFr99lTtB.png",
                                                    "created_at": "2023-05-05T10:47:56.000000Z",
                                                    "updated_at": "2023-05-05T10:47:56.000000Z"
                                                },
                                                {
                                                    "id": 5,
                                                    "title": "test2",
                                                    "description": "test test test2",
                                                    "number": 2221,
                                                    "file": "app/zmCRVQBWje8zmckFaC11ot9xX6y1doV5nPEIVHTJ.png",
                                                    "created_at": "2023-05-05T10:51:33.000000Z",
                                                    "updated_at": "2023-05-05T10:51:33.000000Z"
                                                },
                                                {
                                                    "id": 6,
                                                    "title": "test2",
                                                    "description": "test test test2",
                                                    "number": 2221,
                                                    "file": "app/Bu5IL9oKgeznU1uRmD7OB6sMlFcOwDy0lfMXIVTM.png",
                                                    "created_at": "2023-05-05T10:51:35.000000Z",
                                                    "updated_at": "2023-05-05T10:51:35.000000Z"
                                                },
                                                {
                                                    "id": 7,
                                                    "title": "test2",
                                                    "description": "test test test2",
                                                    "number": 2221,
                                                    "file": "app/17bjrawDIgpH48tnb2MEL2D4Yk9LRKyuy6pUilSj.png",
                                                    "created_at": "2023-05-05T10:52:36.000000Z",
                                                    "updated_at": "2023-05-05T10:52:36.000000Z"
                                                }
                                            ]
                                        },
                                        "message": {
                                            "type": "string",
                                            "example": "done"
                                        }
                                    },
                                    "type": "object"
                                }
                            }
                        }
                    },
                    "401": {
                        "description": "Unauthorized",
                        "content": {
                            "application/json": {
                                "schema": {
                                    "properties": {
                                        "status": {
                                            "type": "integer",
                                            "example": "0"
                                        },
                                        "message": {
                                            "type": "string",
                                            "example": "No Auth"
                                        },
                                        "errors": {
                                            "type": "array",
                                            "example": [
                                                "Bearer Token Miss or Wrong"
                                            ]
                                        },
                                        "data": {
                                            "type": "array",
                                            "example": []
                                        }
                                    },
                                    "type": "object"
                                }
                            }
                        }
                    },
                    "403": {
                        "description": "Forbidden",
                        "content": {
                            "application/json": {
                                "schema": {
                                    "properties": {
                                        "status": {
                                            "type": "integer",
                                            "example": "0"
                                        },
                                        "message": {
                                            "type": "string",
                                            "example": "User does not have the right roles"
                                        },
                                        "errors": {
                                            "type": "array",
                                            "example": [

                                            ]
                                        },
                                        "data": {
                                            "type": "array",
                                            "example": []
                                        }
                                    },
                                    "type": "object"
                                }
                            }
                        }
                    }
                },
                "security": [
                    {
                        "bearerAuth": []
                    }
                ]
            },
            "post": {
                "tags": [
                    "Statements"
                ],
                "requestBody": {
                    "description": "create statement request",
                    "required": true,
                    "content": {
                        "multipart/form-data": {
                            "schema": {
                                "properties": {
                                    "title": {
                                        "type": "string",
                                        "example": "statement title"
                                    },
                                    "description": {
                                        "type": "string",
                                        "example": "statement description"
                                    },
                                    "number": {
                                        "type": "integer",
                                        "example": 20
                                    },
                                    "file": {
                                        "type": "file"
                                    }
                                },
                                "type": "object"
                            }
                        }
                    }
                },
                "responses": {
                    "200": {
                        "description": "Success",
                        "content": {
                            "application/json": {
                                "schema": {
                                    "properties": {
                                        "status": {
                                            "type": "integer",
                                            "example": 1
                                        },
                                        "data": {
                                            "type": "array",
                                            "example": [
                                                {
                                                    "id": 1,
                                                    "title": "statement title",
                                                    "description": "statement description",
                                                    "number": 20,
                                                    "file": "app/TeZTJWWB3JPLWceGL5RO5jh70hF6g5uEmkJY34FN.png",
                                                    "created_at": "2023-05-05T10:12:25.000000Z",
                                                    "updated_at": "2023-05-05T10:12:25.000000Z"
                                                }
                                            ]
                                        },
                                        "message": {
                                            "type": "string",
                                            "example": "done"
                                        }
                                    },
                                    "type": "object"
                                }
                            }
                        }
                    },
                    "401": {
                        "description": "Unauthorized",
                        "content": {
                            "application/json": {
                                "schema": {
                                    "properties": {
                                        "status": {
                                            "type": "integer",
                                            "example": "0"
                                        },
                                        "message": {
                                            "type": "string",
                                            "example": "No Auth"
                                        },
                                        "errors": {
                                            "type": "array",
                                            "example": [
                                                "Bearer Token Miss or Wrong"
                                            ]
                                        },
                                        "data": {
                                            "type": "array",
                                            "example": []
                                        }
                                    },
                                    "type": "object"
                                }
                            }
                        }
                    },
                    "403": {
                        "description": "Forbidden",
                        "content": {
                            "application/json": {
                                "schema": {
                                    "properties": {
                                        "status": {
                                            "type": "integer",
                                            "example": "0"
                                        },
                                        "message": {
                                            "type": "string",
                                            "example": "User does not have the right roles"
                                        },
                                        "errors": {
                                            "type": "array",
                                            "example": [

                                            ]
                                        },
                                        "data": {
                                            "type": "array",
                                            "example": []
                                        }
                                    },
                                    "type": "object"
                                }
                            }
                        }
                    }
                },
                "security": [
                    {
                        "bearerAuth": []
                    }
                ]
            }
        },
        "api/statements/{statement_id}": {
            "parameters": [
                {
                    "name": "statement_id",
                    "in": "path",
                    "description": "",
                    "required": true,
                    "type": "integer"
                }
            ],
            "patch": {
                "tags": [
                    "Statements"
                ],
                "requestBody": {
                    "description": "create user request",
                    "required": true,
                    "content": {
                        "application/json": {
                            "schema": {
                                "properties": {
                                    "title": {
                                        "type": "string",
                                        "example": "statement title"
                                    },
                                    "description": {
                                        "type": "string",
                                        "example": "statement description"
                                    },
                                    "number": {
                                        "type": "integer",
                                        "example": 10
                                    }
                                },
                                "type": "object"
                            }
                        }
                    }
                },
                "responses": {
                    "200": {
                        "description": "Success",
                        "content": {
                            "application/json": {
                                "schema": {
                                    "properties": {
                                        "status": {
                                            "type": "integer",
                                            "example": 1
                                        },
                                        "data": {
                                            "type": "array",
                                            "example": [
                                                {
                                                    "id": 1,
                                                    "title": "statement title",
                                                    "description": "statement description",
                                                    "number": 222,
                                                    "file": "app/TeZTJWWB3JPLWceGL5RO5jh70hF6g5uEmkJY34FN.png",
                                                    "created_at": "2023-05-05T10:12:25.000000Z",
                                                    "updated_at": "2023-05-05T10:12:25.000000Z"
                                                }
                                            ]
                                        },
                                        "message": {
                                            "type": "string",
                                            "example": "done"
                                        }
                                    },
                                    "type": "object"
                                }
                            }
                        }
                    },
                    "400": {
                        "description": "The provided credentials are incorrect.",
                        "content": {
                            "application/json": {
                                "schema": {
                                    "properties": {
                                        "status": {
                                            "type": "integer",
                                            "example": "0"
                                        },
                                        "message": {
                                            "type": "string",
                                            "example": "validation_fail"
                                        },
                                        "errors": {
                                            "type": "array",
                                            "example": [{"email": [
                                                "The selected id is invalid."
                                            ]}]
                                        },
                                        "data": {
                                            "type": "array",
                                            "example": []
                                        }
                                    },
                                    "type": "object"
                                }
                            }
                        }
                    },
                    "401": {
                        "description": "Unauthorized",
                        "content": {
                            "application/json": {
                                "schema": {
                                    "properties": {
                                        "status": {
                                            "type": "integer",
                                            "example": "0"
                                        },
                                        "message": {
                                            "type": "string",
                                            "example": "No Auth"
                                        },
                                        "errors": {
                                            "type": "array",
                                            "example": [
                                                "Bearer Token Miss or Wrong"
                                            ]
                                        },
                                        "data": {
                                            "type": "array",
                                            "example": []
                                        }
                                    },
                                    "type": "object"
                                }
                            }
                        }
                    },
                    "403": {
                        "description": "Forbidden",
                        "content": {
                            "application/json": {
                                "schema": {
                                    "properties": {
                                        "status": {
                                            "type": "integer",
                                            "example": "0"
                                        },
                                        "message": {
                                            "type": "string",
                                            "example": "User does not have the right roles"
                                        },
                                        "errors": {
                                            "type": "array",
                                            "example": [

                                            ]
                                        },
                                        "data": {
                                            "type": "array",
                                            "example": []
                                        }
                                    },
                                    "type": "object"
                                }
                            }
                        }
                    }
                },
                "security": [
                    {
                        "bearerAuth": []
                    }
                ]
            },
            "delete": {
                "tags": [
                    "Statements"
                ],
                "responses": {
                    "200": {
                        "description": "Success",
                        "content": {
                            "application/json": {
                                "schema": {
                                    "properties": {
                                        "status": {
                                            "type": "integer",
                                            "example": 1
                                        },
                                        "data": {
                                            "type": "array",
                                            "example": []
                                        },
                                        "message": {
                                            "type": "string",
                                            "example": "done"
                                        }
                                    },
                                    "type": "object"
                                }
                            }
                        }
                    },
                    "400": {
                        "description": "The provided credentials are incorrect.",
                        "content": {
                            "application/json": {
                                "schema": {
                                    "properties": {
                                        "status": {
                                            "type": "integer",
                                            "example": "0"
                                        },
                                        "message": {
                                            "type": "string",
                                            "example": "validation_fail"
                                        },
                                        "errors": {
                                            "type": "array",
                                            "example": [{"email": [
                                                "The selected id is invalid."
                                            ]}]
                                        },
                                        "data": {
                                            "type": "array",
                                            "example": []
                                        }
                                    },
                                    "type": "object"
                                }
                            }
                        }
                    },
                    "401": {
                        "description": "Unauthorized",
                        "content": {
                            "application/json": {
                                "schema": {
                                    "properties": {
                                        "status": {
                                            "type": "integer",
                                            "example": "0"
                                        },
                                        "message": {
                                            "type": "string",
                                            "example": "No Auth"
                                        },
                                        "errors": {
                                            "type": "array",
                                            "example": [
                                                "Bearer Token Miss or Wrong"
                                            ]
                                        },
                                        "data": {
                                            "type": "array",
                                            "example": []
                                        }
                                    },
                                    "type": "object"
                                }
                            }
                        }
                    },
                    "403": {
                        "description": "Forbidden",
                        "content": {
                            "application/json": {
                                "schema": {
                                    "properties": {
                                        "status": {
                                            "type": "integer",
                                            "example": "0"
                                        },
                                        "message": {
                                            "type": "string",
                                            "example": "User does not have the right roles"
                                        },
                                        "errors": {
                                            "type": "array",
                                            "example": [

                                            ]
                                        },
                                        "data": {
                                            "type": "array",
                                            "example": []
                                        }
                                    },
                                    "type": "object"
                                }
                            }
                        }
                    }
                },
                "security": [
                    {
                        "bearerAuth": []
                    }
                ]

            }
        }
    },
    "components": {
        "securitySchemes": {
            "bearerAuth": {
                "type": "http",
                "bearerFormat": "JWT",
                "scheme": "bearer"
            }
        }
    },
    "securitySchemes": {
        "bearerAuth": {
            "type": "http",
            "description": "JWT Authorization header using the Bearer scheme.",
            "scheme": "bearer",
            "bearerFormat": "JWT"
        }
    }
}
